B+
B+
D+
A-
B+
B+
B+
B+
B+
D+
B+
D+
A
B+
D+
B+
D+
B+
B+
B+
B+
B-
B
A
A
B+
A
B+
A
A-
B+
B+
B+
C
B-
B+
A
A
B+
A
C
B+
B+
F
A
B+
B+
B+
D+
C
B+
B+
B+
B-
A
A
B+
B-
B+
B+
B
B+
D-
B
D+
B-
B+
B
A
C+
A
B-
B+
A
A
B+
D+
A
B+
B+
B+
A
A
A
C
B+
B+
B+
B+
A
B+
A
B-
B+
B+
A
B+
B-
B+
B-
A
A
D+
D+
C
B+
B
B+
B+
B+
B+
B+
A
D+
B+
B+
D+
A
B+
B+
B+
A
A-
B+
A
B
A
A
B+
B+
B+
B+
B+
A
B+
B+
B+
B+
B+
B+
B+
B+
B+
B+
D+
A
A
B+
D+
C
B+
A-
B+
B+
B-
B+
B+
B-
C+
B+
B-
A
B+
B+
B+
D+
A
B+
A
D+
B+
D+
B+
B-
B-
B-
C+
B-
A
B+
D+
B+
B+
A
B+
B+
B+
B+
B+
D+
B+
A
A
B+
D+
B+
B+
B+
A-
B+
B+
A
B
D+
A-
C
B+
B+
B+
B+
A
B+
B+
